%YAML 1.1
%TAG !u! tag:unity3d.com,2011:
--- !u!1001 &7961914056731009603
PrefabInstance:
  m_ObjectHideFlags: 0
  serializedVersion: 2
  m_Modification:
    m_TransformParent: {fileID: 0}
    m_Modifications:
    - target: {fileID: 82661510310325830, guid: 1a0ab10245f034735bcba85fb49722af,
        type: 3}
      propertyPath: m_Materials.Array.data[0]
      value: 
      objectReference: {fileID: 2100000, guid: 9f9550a7f2a864e1ea1798bcc6a06893, type: 2}
    - target: {fileID: 146397150855537675, guid: 1a0ab10245f034735bcba85fb49722af,
        type: 3}
      propertyPath: m_Materials.Array.data[0]
      value: 
      objectReference: {fileID: 2100000, guid: 9f9550a7f2a864e1ea1798bcc6a06893, type: 2}
    - target: {fileID: 316462593500829647, guid: 1a0ab10245f034735bcba85fb49722af,
        type: 3}
      propertyPath: m_Materials.Array.data[0]
      value: 
      objectReference: {fileID: 2100000, guid: 9f9550a7f2a864e1ea1798bcc6a06893, type: 2}
    - target: {fileID: 1567303617080704023, guid: 1a0ab10245f034735bcba85fb49722af,
        type: 3}
      propertyPath: m_Materials.Array.data[0]
      value: 
      objectReference: {fileID: 2100000, guid: 9f9550a7f2a864e1ea1798bcc6a06893, type: 2}
    - target: {fileID: 1570250485109020909, guid: 1a0ab10245f034735bcba85fb49722af,
        type: 3}
      propertyPath: m_Materials.Array.data[0]
      value: 
      objectReference: {fileID: 2100000, guid: 9f9550a7f2a864e1ea1798bcc6a06893, type: 2}
    - target: {fileID: 1818960319655664899, guid: 1a0ab10245f034735bcba85fb49722af,
        type: 3}
      propertyPath: m_Materials.Array.data[0]
      value: 
      objectReference: {fileID: 2100000, guid: 9f9550a7f2a864e1ea1798bcc6a06893, type: 2}
    - target: {fileID: 2103670579163684688, guid: 1a0ab10245f034735bcba85fb49722af,
        type: 3}
      propertyPath: m_Materials.Array.data[0]
      value: 
      objectReference: {fileID: 2100000, guid: 9f9550a7f2a864e1ea1798bcc6a06893, type: 2}
    - target: {fileID: 2423399888102980516, guid: 1a0ab10245f034735bcba85fb49722af,
        type: 3}
      propertyPath: m_Materials.Array.data[0]
      value: 
      objectReference: {fileID: 2100000, guid: 9f9550a7f2a864e1ea1798bcc6a06893, type: 2}
    - target: {fileID: 2655319086730872026, guid: 1a0ab10245f034735bcba85fb49722af,
        type: 3}
      propertyPath: m_Materials.Array.data[0]
      value: 
      objectReference: {fileID: 2100000, guid: 9f9550a7f2a864e1ea1798bcc6a06893, type: 2}
    - target: {fileID: 3118023585652253563, guid: 1a0ab10245f034735bcba85fb49722af,
        type: 3}
      propertyPath: m_Materials.Array.data[0]
      value: 
      objectReference: {fileID: 2100000, guid: 9f9550a7f2a864e1ea1798bcc6a06893, type: 2}
    - target: {fileID: 3401724760416559845, guid: 1a0ab10245f034735bcba85fb49722af,
        type: 3}
      propertyPath: m_Materials.Array.data[0]
      value: 
      objectReference: {fileID: 2100000, guid: 9f9550a7f2a864e1ea1798bcc6a06893, type: 2}
    - target: {fileID: 3497117807690571642, guid: 1a0ab10245f034735bcba85fb49722af,
        type: 3}
      propertyPath: m_Materials.Array.data[0]
      value: 
      objectReference: {fileID: 2100000, guid: 9f9550a7f2a864e1ea1798bcc6a06893, type: 2}
    - target: {fileID: 4097538263636577978, guid: 1a0ab10245f034735bcba85fb49722af,
        type: 3}
      propertyPath: m_Materials.Array.data[0]
      value: 
      objectReference: {fileID: 2100000, guid: 9f9550a7f2a864e1ea1798bcc6a06893, type: 2}
    - target: {fileID: 4219236748512330072, guid: 1a0ab10245f034735bcba85fb49722af,
        type: 3}
      propertyPath: m_Materials.Array.data[0]
      value: 
      objectReference: {fileID: 2100000, guid: 9f9550a7f2a864e1ea1798bcc6a06893, type: 2}
    - target: {fileID: 4246580358913072554, guid: 1a0ab10245f034735bcba85fb49722af,
        type: 3}
      propertyPath: m_Materials.Array.data[0]
      value: 
      objectReference: {fileID: 2100000, guid: 9f9550a7f2a864e1ea1798bcc6a06893, type: 2}
    - target: {fileID: 4821003517434511808, guid: 1a0ab10245f034735bcba85fb49722af,
        type: 3}
      propertyPath: m_Materials.Array.data[0]
      value: 
      objectReference: {fileID: 2100000, guid: 9f9550a7f2a864e1ea1798bcc6a06893, type: 2}
    - target: {fileID: 4850617242302978956, guid: 1a0ab10245f034735bcba85fb49722af,
        type: 3}
      propertyPath: m_Materials.Array.data[0]
      value: 
      objectReference: {fileID: 2100000, guid: 9f9550a7f2a864e1ea1798bcc6a06893, type: 2}
    - target: {fileID: 5371415135302863336, guid: 1a0ab10245f034735bcba85fb49722af,
        type: 3}
      propertyPath: m_LocalPosition.x
      value: 0
      objectReference: {fileID: 0}
    - target: {fileID: 5371415135302863336, guid: 1a0ab10245f034735bcba85fb49722af,
        type: 3}
      propertyPath: m_LocalPosition.y
      value: 0
      objectReference: {fileID: 0}
    - target: {fileID: 5371415135302863336, guid: 1a0ab10245f034735bcba85fb49722af,
        type: 3}
      propertyPath: m_LocalPosition.z
      value: 0
      objectReference: {fileID: 0}
    - target: {fileID: 5371415135302863336, guid: 1a0ab10245f034735bcba85fb49722af,
        type: 3}
      propertyPath: m_LocalRotation.x
      value: -0
      objectReference: {fileID: 0}
    - target: {fileID: 5371415135302863336, guid: 1a0ab10245f034735bcba85fb49722af,
        type: 3}
      propertyPath: m_LocalRotation.y
      value: -0
      objectReference: {fileID: 0}
    - target: {fileID: 5371415135302863336, guid: 1a0ab10245f034735bcba85fb49722af,
        type: 3}
      propertyPath: m_LocalRotation.z
      value: -0
      objectReference: {fileID: 0}
    - target: {fileID: 5371415135302863336, guid: 1a0ab10245f034735bcba85fb49722af,
        type: 3}
      propertyPath: m_LocalRotation.w
      value: 1
      objectReference: {fileID: 0}
    - target: {fileID: 5371415135302863336, guid: 1a0ab10245f034735bcba85fb49722af,
        type: 3}
      propertyPath: m_RootOrder
      value: 0
      objectReference: {fileID: 0}
    - target: {fileID: 5371415135302863336, guid: 1a0ab10245f034735bcba85fb49722af,
        type: 3}
      propertyPath: m_LocalEulerAnglesHint.x
      value: 0
      objectReference: {fileID: 0}
    - target: {fileID: 5371415135302863336, guid: 1a0ab10245f034735bcba85fb49722af,
        type: 3}
      propertyPath: m_LocalEulerAnglesHint.y
      value: 0
      objectReference: {fileID: 0}
    - target: {fileID: 5371415135302863336, guid: 1a0ab10245f034735bcba85fb49722af,
        type: 3}
      propertyPath: m_LocalEulerAnglesHint.z
      value: 0
      objectReference: {fileID: 0}
    - target: {fileID: 5497928697056407057, guid: 1a0ab10245f034735bcba85fb49722af,
        type: 3}
      propertyPath: m_Materials.Array.data[0]
      value: 
      objectReference: {fileID: 2100000, guid: 9f9550a7f2a864e1ea1798bcc6a06893, type: 2}
    - target: {fileID: 5784438325602934326, guid: 1a0ab10245f034735bcba85fb49722af,
        type: 3}
      propertyPath: m_Materials.Array.data[0]
      value: 
      objectReference: {fileID: 2100000, guid: 9f9550a7f2a864e1ea1798bcc6a06893, type: 2}
    - target: {fileID: 5838626773625900739, guid: 1a0ab10245f034735bcba85fb49722af,
        type: 3}
      propertyPath: m_Materials.Array.data[0]
      value: 
      objectReference: {fileID: 2100000, guid: 9f9550a7f2a864e1ea1798bcc6a06893, type: 2}
    - target: {fileID: 5871329722756697534, guid: 1a0ab10245f034735bcba85fb49722af,
        type: 3}
      propertyPath: m_Materials.Array.data[0]
      value: 
      objectReference: {fileID: 2100000, guid: 9f9550a7f2a864e1ea1798bcc6a06893, type: 2}
    - target: {fileID: 6008590695890920530, guid: 1a0ab10245f034735bcba85fb49722af,
        type: 3}
      propertyPath: m_Materials.Array.data[0]
      value: 
      objectReference: {fileID: 2100000, guid: 9f9550a7f2a864e1ea1798bcc6a06893, type: 2}
    - target: {fileID: 6521515904595301041, guid: 1a0ab10245f034735bcba85fb49722af,
        type: 3}
      propertyPath: m_Materials.Array.data[0]
      value: 
      objectReference: {fileID: 2100000, guid: 9f9550a7f2a864e1ea1798bcc6a06893, type: 2}
    - target: {fileID: 8520014381689025963, guid: 1a0ab10245f034735bcba85fb49722af,
        type: 3}
      propertyPath: m_Materials.Array.data[0]
      value: 
      objectReference: {fileID: 2100000, guid: 9f9550a7f2a864e1ea1798bcc6a06893, type: 2}
    - target: {fileID: 8993759115175312379, guid: 1a0ab10245f034735bcba85fb49722af,
        type: 3}
      propertyPath: m_Name
      value: XX_P_SymmetryCube_blue
      objectReference: {fileID: 0}
    m_RemovedComponents: []
  m_SourcePrefab: {fileID: 100100000, guid: 1a0ab10245f034735bcba85fb49722af, type: 3}
